item_code,item_is_Appetizer,item_is_Breakfast_MainCourse,item_is_Dessert,item_is_Drink,item_is_Others,item_is_Pasta,item_is_Pizza,item_is_Protein,item_is_Rice,item_is_Salad,item_is_Soup,0,1,2,3,4,5,6,7,8,9,average_item_price
200003,0,0,0,0,0,0,0,0,0,0,1,5.137503,-11.329592,0.10483737,10.113563,4.304725,-5.089154,-9.220009,-11.071039,-5.2017837,-4.349642,27.091806
200026,0,0,0,0,0,0,0,0,0,0,1,-1.6425426,0.6618327,-0.70874715,3.2346797,1.7390319,-3.4826667,-4.428351,-3.1101234,-4.435353,-1.2992164,23.081343
200027,0,0,0,0,0,0,0,0,0,0,1,-0.27339,1.0441815,-1.0941914,4.50617,-0.3827123,-0.35065717,-4.379775,0.08007835,1.2671013,-0.2853577,23.092198
300019,0,0,0,0,0,0,0,0,0,1,0,2.1534007,-2.580801,0.107120536,9.125265,-0.20021291,0.1883524,-2.2745392,-4.6636543,1.6978683,-1.7154514,27.0
300129,0,0,0,0,0,0,0,0,0,1,0,-1.3874383,-2.9639127,-2.6812842,4.277503,1.2776077,-3.6824791,-6.204812,-7.0949197,-4.884472,-0.72675264,30.080523
300140,0,0,0,0,0,0,0,0,0,1,0,0.7584662,-0.09228663,-0.8653998,5.432607,0.48210478,-1.0986812,-4.95183,-0.41140345,0.063683234,-1.4027654,27.103698
300342,0,0,0,0,0,0,0,0,0,1,0,0.07560273,-8.01149,-0.29759943,11.896749,4.159834,-13.220941,-4.354733,-17.964895,-9.150488,-8.767154,27.103698
300378,0,0,0,0,0,0,0,0,0,1,0,3.4079525,-1.1737365,0.44371745,0.68763566,1.4561362,0.2971879,-1.3860865,0.9022465,-0.71676767,-1.4434361,49.017092
300379,0,0,0,0,0,0,0,0,0,1,0,7.131388,-3.2782638,1.3055822,1.2801384,3.7292166,1.1642252,-2.5702221,-0.051320903,-3.6459672,-1.9849639,46.022789
300380,0,0,0,0,0,0,0,0,0,1,0,4.656527,-3.5470934,0.7343234,2.0828044,2.454394,-0.4414207,-3.1236453,0.049229603,-1.1938641,-2.5786583,46.051822
300381,0,0,0,0,0,0,0,0,0,1,0,8.756091,-6.5910697,2.1953776,3.0863068,4.930749,-0.06275171,-3.500662,-2.0831318,-4.194694,-3.6164546,43.065539
310486,0,1,0,0,0,0,0,0,0,0,0,-1.3076954,3.1615477,-1.8912983,-2.4931176,-1.2215908,8.276809,14.206223,-19.531681,-11.146399,8.228692,13.036604
400032,1,0,0,0,0,0,0,0,0,0,0,-4.1724715,-7.7218394,-4.345355,5.224314,3.7086854,-11.920349,-7.45195,-17.016623,-15.242674,-3.9936788,29.091444
400041,1,0,0,0,0,0,0,0,0,0,0,-2.4964316,-7.956201,-3.2658958,7.0628653,3.8283947,-11.293931,-7.1628103,-16.239225,-13.380395,-4.8158035,29.091444
400044,1,0,0,0,0,0,0,0,0,0,0,1.1691111,-1.314302,0.08692773,5.050275,2.791591,-3.2179675,-3.15722,-5.381729,-6.6330924,-2.3322554,36.121453
400122,1,0,0,0,0,0,0,0,0,0,0,4.0204005,-8.934748,0.04289477,7.3956604,4.610137,-7.3169312,-4.908958,-9.41738,-9.175425,-6.4086337,39.091476
400124,1,0,0,0,0,0,0,0,0,0,0,4.04519,-10.666768,-0.19861096,7.8232913,4.722654,-7.1462655,-6.997907,-10.062849,-8.750894,-5.808294,49.152648
401000,1,0,0,0,0,0,0,0,0,0,0,-3.8332243,-0.3466107,3.83144,19.662992,-3.6961272,-13.337209,8.316411,-13.014143,8.948318,-12.368724,39.173019
401085,1,0,0,0,0,0,0,0,0,0,0,0.44761503,-2.8673892,-1.2123247,2.15194,3.6736214,-4.6584997,-4.4140306,-7.506036,-9.491575,-2.007191,29.091381
401233,1,0,0,0,0,0,0,0,0,0,0,-2.657091,-5.7321773,-0.42980668,13.588628,2.970721,-14.58116,-3.4418802,-17.335022,-8.65754,-9.296381,39.173019
401242,1,0,0,0,0,0,0,0,0,0,0,-4.2296095,1.4930594,-3.437895,-3.5474055,2.5286608,-5.6141834,-5.6435933,-2.813815,-9.1964,-0.5398832,19.091381
401243,1,0,0,0,0,0,0,0,0,0,0,-5.6873302,-1.2895927,-5.2360506,1.4782277,1.4532869,-5.016147,-8.13911,-6.911553,-11.351292,0.9745321,23.080997
401247,1,0,0,0,0,0,0,0,0,0,0,-4.1346593,0.7727367,3.049745,17.834505,-3.8169842,-11.173881,5.8424835,-10.625266,9.561872,-10.042588,39.173019
401307,1,0,0,0,0,0,0,0,0,0,0,-0.4421781,0.3861747,0.030201582,0.06568164,-0.37838998,-0.103353105,-0.006929328,-0.2528774,0.4370519,0.1667893,0.0
401308,1,0,0,0,0,0,0,0,0,0,0,-0.45401332,0.39406928,-0.2887242,0.1399408,-0.4257596,0.20678173,-0.042359516,-0.259049,0.42323622,0.19441147,0.0
401348,1,0,0,0,0,0,0,0,0,0,0,3.11026,-0.19067861,0.50267637,5.7999377,0.3157261,1.5359012,-2.8742573,-0.32594964,1.9831777,-0.6254922,0.0
401370,1,0,0,0,0,0,0,0,0,0,0,0.72590965,-1.2153728,-2.0180223,-1.3365057,1.7511593,-0.37875572,-6.031451,0.50812066,-3.3779638,0.5424225,23.080997
401371,1,0,0,0,0,0,0,0,0,0,0,8.053765,-6.9050293,1.6543473,4.4088373,5.0509243,-0.89086014,-4.341552,-3.2366483,-6.453525,-3.6475174,39.152807
401376,1,0,0,0,0,0,0,0,0,0,0,10.36167,-6.7293043,1.073916,-2.4934957,5.4189944,1.0810226,-6.8263392,4.727134,-2.574214,-3.0107572,39.0
401377,1,0,0,0,0,0,0,0,0,0,0,11.788412,-8.017209,2.4056008,1.3648154,4.770453,-0.44724223,-4.5388856,3.667181,0.28279552,-5.8557577,39.0
401401,1,0,0,0,0,0,0,0,0,0,0,0.24503985,1.7566314,-0.4091685,3.8937776,-0.66496044,1.7003965,-0.28607035,-0.91312647,-0.8719515,0.81983477,0.0
401402,1,0,0,0,0,0,0,0,0,0,0,-0.25072357,0.37243274,-0.060432933,0.044923827,-0.28751144,0.10479564,-0.046736874,-0.19520497,0.03372334,0.26099947,0.0
401404,1,0,0,0,0,0,0,0,0,0,0,-4.631328,4.45265,-0.14510454,2.732469,-1.1224351,-5.0500383,-1.0360217,3.2819843,1.1904547,-3.2280583,0.0
401472,1,0,0,0,0,0,0,0,0,0,0,-3.5859451,5.8115973,-1.034592,-11.38718,2.2552063,-4.5916667,0.8355347,7.3059435,-8.625988,-1.2945498,23.081081
401473,1,0,0,0,0,0,0,0,0,0,0,-2.4358463,4.371664,-2.0223396,-11.088476,1.8597955,-2.0365465,-1.8912295,7.03633,-6.7097917,0.79200476,23.081081
600262,0,0,1,0,0,0,0,0,0,0,0,-1.3685017,-6.7282023,-0.90835625,12.241377,2.6695907,-11.676764,-3.5440764,-16.731997,-8.459954,-7.3031406,24.060921
600279,0,0,1,0,0,0,0,0,0,0,0,0.5277627,-8.964525,-1.2517232,7.685291,3.683027,-9.636802,-5.7016234,-14.02017,-8.867116,-5.706772,24.0609
600280,0,0,1,0,0,0,0,0,0,0,0,-6.559524,-7.15728,-8.208529,5.6420393,2.0622382,-16.079065,-17.696526,-12.914606,-4.9796276,-5.8328743,15.17301
600494,0,0,1,0,0,0,0,0,0,0,0,2.0913806,-4.5869756,-0.565868,8.970151,1.9094985,-2.1889699,-4.089386,-7.9280477,-4.5206785,-2.55211,0.0
600542,0,0,1,0,0,0,0,0,0,0,0,-1.0520744,-2.9385452,-0.96630436,6.705419,2.1189868,-6.8119655,-2.5982964,-10.581233,-6.77034,-3.8582687,26.111111
600573,0,0,1,0,0,0,0,0,0,0,0,4.4720116,0.7119429,1.5327917,5.479094,0.4092396,3.2914426,1.7071912,-7.5808153,3.5465796,0.6361029,19.0
600603,0,0,1,0,0,0,0,0,0,0,0,-3.6713414,-4.983708,-4.044804,8.614993,1.98509,-8.383555,-8.224798,-14.761685,-9.20162,-2.4590726,24.069051
600813,0,0,1,0,0,0,0,0,0,0,0,6.955333,-3.8270628,2.3080294,2.562515,4.55788,0.04964633,-1.0782641,-2.3646896,-6.3099084,-2.9031672,29.13188
600815,0,0,1,0,0,0,0,0,0,0,0,2.805168,-0.7433132,2.7803228,5.726955,1.8121145,-3.3174322,2.3998036,-4.426735,-1.1389537,-4.7258887,26.111111
600820,0,0,1,0,0,0,0,0,0,0,0,4.7071476,-0.33124104,0.82005996,4.48771,1.5613996,2.8192716,-0.26800615,-3.1694615,-2.035004,-0.028609622,0.0
710222,0,0,0,1,0,0,0,0,0,0,0,-6.8493686,-0.4351175,-3.7026198,4.24386,1.2039165,-6.9044065,-6.021804,-14.2749815,-8.366641,0.6212701,21.111649
710223,0,0,0,1,0,0,0,0,0,0,0,-1.7219329,2.0863008,1.3090527,2.933403,3.20109,-5.1726027,-2.5672975,-6.3501987,-4.881232,-2.3026087,21.111687
710225,0,0,0,1,0,0,0,0,0,0,0,-1.7215044,6.9601607,2.1039908,-2.358533,4.2107644,-4.878411,-2.2863545,-2.9220655,-3.2373526,-1.7220522,19.091255
710226,0,0,0,1,0,0,0,0,0,0,0,1.3490686,-8.410745,1.432635,13.901496,3.247103,-9.36004,-5.994115,-16.377321,-3.154517,-6.38234,25.111457
710228,0,0,0,1,0,0,0,0,0,0,0,-5.6294074,1.8528492,-3.235611,1.1223866,0.96161324,-5.0327606,-6.0606904,-8.273138,-4.560591,0.86140895,21.111803
710230,0,0,0,1,0,0,0,0,0,0,0,-19.486013,-1.9722114,-11.116198,3.1434846,-1.142163,-15.729457,-12.3744955,-21.52923,-15.760541,1.8143907,15.17307
710232,0,0,0,1,0,0,0,0,0,0,0,0.614771,1.739193,3.8787346,6.0953035,4.565512,-5.2753944,0.3136705,-9.806727,-6.6064935,-3.651276,21.111649
710233,0,0,0,1,0,0,0,0,0,0,0,1.9458414,3.6067605,4.868446,4.774442,4.8611245,-3.6832182,1.5253135,-6.1217723,-6.0799384,-3.6475627,21.111649
710237,0,0,0,1,0,0,0,0,0,0,0,-2.960368,3.0338972,0.97584397,1.6653205,2.7765334,-5.153301,-2.166411,-6.420057,-4.6113553,-1.5917588,19.091255
710271,0,0,0,1,0,0,0,0,0,0,0,-9.036168,0.29584643,-4.1921015,2.317126,-0.849153,-4.108159,-2.7175045,-12.794533,-7.7278447,2.8504047,18.126327
710368,0,0,0,1,0,0,0,0,0,0,0,7.614767,-3.4451885,2.9189224,12.982985,2.237594,-0.03111647,-4.419766,-6.201051,5.1106052,-4.0526867,25.262927
710369,0,0,0,1,0,0,0,0,0,0,0,-4.1836224,-1.4642942,-0.5391767,5.2434587,3.0189478,-6.431656,-1.2845423,-18.29124,-10.78128,-0.54370856,25.125936
711316,0,0,0,1,0,0,0,0,0,0,0,5.9320817,-5.626131,1.9995142,8.537084,4.2364426,-2.365172,-6.009018,-7.061359,-2.3519495,-3.7312913,25.030114
711317,0,0,0,1,0,0,0,0,0,0,0,3.895715,-7.664299,2.1427171,9.742577,3.6037743,-8.117989,-3.7671046,-11.878207,-1.4437511,-7.139016,25.126331
711318,0,0,0,1,0,0,0,0,0,0,0,5.230494,-4.8615804,1.9776051,9.317123,3.405056,-2.41319,-4.983473,-7.2822227,-0.9144172,-3.8840466,25.030114
711319,0,0,0,1,0,0,0,0,0,0,0,4.2660103,-8.363157,0.89443654,6.006556,3.8490198,-5.1883197,-5.1830854,-9.799854,-3.2911417,-4.4303536,25.126331
711332,0,0,0,1,0,0,0,0,0,0,0,0.0,0.0,0.0,0.0,0.0,0.0,0.0,0.0,0.0,0.0,0.0
711420,0,0,0,1,0,0,0,0,0,0,0,5.963638,-8.417286,2.29063,10.682009,4.3407726,-4.796872,-6.157472,-10.82209,-2.276256,-5.1963673,25.126331
711421,0,0,0,1,0,0,0,0,0,0,0,4.9249716,-4.0140657,2.8123627,14.668378,4.1127625,-5.942417,-7.4045157,-10.46536,0.43873334,-6.307282,25.126331
711616,0,0,0,1,0,0,0,0,0,0,0,4.399785,-7.4632697,-0.3743526,6.441609,0.20815447,3.478156,-7.320855,-3.685355,4.049925,1.5199293,35.131397
711617,0,0,0,1,0,0,0,0,0,0,0,4.179081,-4.0018177,0.30976725,5.249118,0.3424105,4.031783,-4.060379,-3.295149,2.71044,1.677671,35.14897
711618,0,0,0,1,0,0,0,0,0,0,0,4.7374167,-5.2800846,0.038666036,5.3157253,0.4043276,4.3674207,-5.2660866,-2.8226483,2.9108682,1.8026062,35.14897
711619,0,0,0,1,0,0,0,0,0,0,0,2.9892795,-1.7233115,0.3811731,4.5330124,0.31164885,3.7722695,-2.385848,-3.1005533,0.9662127,1.9041841,35.14897
711620,0,0,0,1,0,0,0,0,0,0,0,2.6965423,-3.378744,-0.21034536,4.8339934,-0.31185502,3.9599977,-3.3958795,-3.1376607,2.392608,2.1522923,35.14897
711621,0,0,0,1,0,0,0,0,0,0,0,4.033496,-6.7419515,-0.26655558,6.1948247,0.18042308,2.8968065,-5.9147787,-3.5300846,3.4183383,0.81543493,35.131397
711622,0,0,0,1,0,0,0,0,0,0,0,3.3223143,-1.7073158,0.40505055,4.5710783,0.60093874,3.8469024,-3.0202954,-2.8739638,0.8273076,1.8644749,35.131397
711623,0,0,0,1,0,0,0,0,0,0,0,4.3806314,-3.0169086,0.16853893,4.2199645,0.9625947,4.4558115,-4.116041,-1.9245812,0.26253375,1.9957871,35.131397
711624,0,0,0,1,0,0,0,0,0,0,0,4.5906067,-5.9519644,0.016738521,5.58045,0.27136233,3.7666655,-5.1618176,-2.969806,3.2868726,1.2710298,29.253804
711625,0,0,0,1,0,0,0,0,0,0,0,4.740723,-7.7641006,-0.82074994,6.547906,0.06733067,3.7598622,-7.6265044,-2.5877972,3.9151926,1.2905351,29.253804
711628,0,0,0,1,0,0,0,0,0,0,0,3.7501078,-2.5393987,0.45379823,4.719761,0.58354473,3.7538538,-3.0458674,-2.7687693,1.0759143,1.5498714,25.111342
711629,0,0,0,1,0,0,0,0,0,0,0,4.8968315,-7.1378074,-0.7934309,6.247861,0.13109547,4.1946936,-7.581534,-2.0353427,3.6999402,1.5765517,25.111342
711636,0,0,0,1,0,0,0,0,0,0,0,1.607998,-1.8352541,3.2237453,18.30517,-2.379408,-2.2195773,3.5028605,-9.822645,7.2991214,-5.211164,0.0
711645,0,0,0,1,0,0,0,0,0,0,0,4.5534573,-2.9551518,2.3118467,11.962755,-0.085439205,1.5429021,0.85947436,-7.962679,3.437436,-1.9699833,0.0
711689,0,0,0,1,0,0,0,0,0,0,0,6.568238,-9.228456,1.9974926,6.582504,5.3487825,-3.0924287,-6.743264,-9.382289,-4.9462833,-3.47024,25.126331
711705,0,0,0,1,0,0,0,0,0,0,0,1.8845749,-9.382954,0.86775154,12.675474,1.4868973,-6.514681,-3.5548718,-14.179507,-1.1829787,-5.242596,19.103576
711706,0,0,0,1,0,0,0,0,0,0,0,7.302232,-6.715482,-0.40246382,1.9899884,1.8253664,4.0263257,-0.6973218,-1.3099626,-4.661569,-0.22019272,25.322403
711707,0,0,0,1,0,0,0,0,0,0,0,4.2541366,-2.1988504,0.36106464,3.1313114,1.200178,3.3327332,-1.3751119,-2.2125304,-1.7414414,0.8728939,29.152648
711708,0,0,0,1,0,0,0,0,0,0,0,6.2816296,-4.265264,-0.3258247,0.5562606,1.9569157,3.377765,-1.1789652,-0.65076816,-3.6539757,0.047880124,29.210014
711710,0,0,0,1,0,0,0,0,0,0,0,9.678834,-12.524182,3.5220919,7.590192,6.114514,-2.3968053,-5.6634746,-10.758484,-4.342082,-4.3531556,25.126331
711762,0,0,0,1,0,0,0,0,0,0,0,2.929965,-1.0533652,-0.012983918,0.94329256,1.1631613,3.0111916,-1.9231373,-1.1384875,-1.7462206,1.5282654,35.149086
711763,0,0,0,1,0,0,0,0,0,0,0,5.027811,-3.2212858,0.22534046,2.3610542,1.6452065,4.5935903,-4.1203775,-1.5177407,-0.82252616,2.1540763,35.149086
711764,0,0,0,1,0,0,0,0,0,0,0,6.56691,-9.330199,2.037774,5.8319693,3.006422,-0.07946064,-4.7193832,-6.2958374,0.28028026,-2.1550362,25.126331
711765,0,0,0,1,0,0,0,0,0,0,0,7.266631,-7.732137,3.0469794,4.267894,3.5074258,0.5653592,-2.7405314,-6.567584,0.4626386,-1.9051613,25.126331
711766,0,0,0,1,0,0,0,0,0,0,0,5.9361763,-3.684797,0.13084249,2.72669,1.9263525,4.0999827,-3.088578,-0.83415204,-2.5875685,0.92641157,0.0
711767,0,0,0,1,0,0,0,0,0,0,0,6.8581896,-4.9468803,0.10733551,3.5036795,2.1311307,4.5647707,-4.232677,-0.2923039,-2.453252,0.813783,0.0
711768,0,0,0,1,0,0,0,0,0,0,0,3.8631034,-3.5695202,0.7279688,4.422904,0.8030627,2.6128924,-1.8478473,-3.2953289,0.30639786,0.39903942,0.0
711769,0,0,0,1,0,0,0,0,0,0,0,3.833364,-2.7324936,0.90158886,4.5905957,0.9310093,2.4730997,-1.8714516,-3.22991,0.58499306,0.2662769,0.0
711770,0,0,0,1,0,0,0,0,0,0,0,4.426463,-1.833802,0.1420767,2.1484594,1.5381135,2.7157419,-0.64588076,-0.99240726,-3.72105,0.16984871,0.0
711771,0,0,0,1,0,0,0,0,0,0,0,6.0506372,-4.188657,-0.09955499,2.4434521,1.9049689,3.645175,-2.5511343,0.020405151,-3.5280485,0.22379005,0.0
711772,0,0,0,1,0,0,0,0,0,0,0,-1.1589155,-0.69059765,1.822369,10.011595,-0.909947,-0.6957264,0.2704274,-9.231159,3.145072,-0.52879816,0.0
711773,0,0,0,1,0,0,0,0,0,0,0,-3.132621,-0.19398798,2.2051108,14.565696,-2.4823663,-3.604672,2.0845675,-10.889351,5.5339856,-3.0206032,0.0
711774,0,0,0,1,0,0,0,0,0,0,0,1.5492179,-6.0836825,-2.883913,-4.117584,3.150926,1.152664,-5.740782,-1.5561872,-10.5762615,2.0387943,21.121841
711775,0,0,0,1,0,0,0,0,0,0,0,0.9279305,-6.096511,-4.1016603,-4.9432282,3.4841375,0.8980957,-7.9453773,-1.4198921,-12.473986,2.8099506,21.121841
711776,0,0,0,1,0,0,0,0,0,0,0,5.2663593,-7.1833196,-1.475503,-3.92225,4.1066985,2.3061461,-5.2759666,0.82886493,-9.701217,0.8476747,25.121841
711777,0,0,0,1,0,0,0,0,0,0,0,6.3150864,-7.4458466,-1.7861266,-5.2322335,4.8317885,3.7934139,-6.2220483,2.6531022,-12.016369,1.7196612,25.121841
711833,0,0,0,1,0,0,0,0,0,0,0,14.270936,-7.243871,5.9968925,5.868637,8.626614,0.2675345,-3.300655,-5.771304,-5.643251,-5.26505,0.0
711834,0,0,0,1,0,0,0,0,0,0,0,13.385302,-7.703764,5.566671,6.3031297,8.082543,-0.06637906,-3.7011664,-5.712171,-5.321533,-5.2064385,0.0
711835,0,0,0,1,0,0,0,0,0,0,0,10.679775,-3.69118,4.3294015,1.5531877,7.0520163,0.24290805,-1.2004712,-3.9994926,-6.006609,-3.6660476,21.0
711836,0,0,0,1,0,0,0,0,0,0,0,12.809107,1.4889693,7.217235,1.4035132,11.583403,-0.589943,-0.867779,-1.1718599,-14.523134,-5.5067625,21.0
711837,0,0,0,1,0,0,0,0,0,0,0,7.1400137,-3.2821972,0.6426312,-0.03615617,3.490583,2.1672502,-1.2752911,-0.04949979,-5.698384,-1.083146,25.0
711838,0,0,0,1,0,0,0,0,0,0,0,9.999185,-6.1895576,1.4799912,0.95272124,4.948207,2.2645943,-4.2876763,2.1251762,-5.552834,-2.3201373,25.0
711839,0,0,0,1,0,0,0,0,0,0,0,10.268795,-3.5742798,4.30394,2.0540638,6.7453704,-0.07117855,-1.4290823,-3.9379623,-5.211224,-3.792196,0.0
711840,0,0,0,1,0,0,0,0,0,0,0,12.336312,1.4474647,6.9549212,1.4126107,10.966268,-1.2797637,-1.5439235,-0.9929307,-11.928689,-5.7780223,0.0
711841,0,0,0,1,0,0,0,0,0,0,0,8.491216,-3.2284658,-0.05704412,-0.78841674,4.370968,3.8236032,-2.7041285,1.9404999,-8.534541,-0.3179702,0.0
711842,0,0,0,1,0,0,0,0,0,0,0,10.635035,-6.79789,0.18122822,-0.113935806,5.8832703,4.16691,-7.323038,3.509788,-8.796432,-0.6543471,0.0
760064,0,0,0,1,0,0,0,0,0,0,0,-8.107076,-0.18134175,-3.8591106,-0.24072658,0.48153296,-1.9829462,-1.4959346,-14.778218,-11.787568,4.8420773,18.126327
760065,0,0,0,1,0,0,0,0,0,0,0,-2.7263103,-2.8235438,-0.19060934,2.9537637,4.8086524,-4.7189827,-0.04074752,-22.018465,-16.250547,1.3518078,25.125936
760066,0,0,0,1,0,0,0,0,0,0,0,-12.214587,0.8056106,-6.574852,0.65493405,0.57672155,-7.8589525,-6.5611963,-17.828468,-12.980062,3.4854076,25.125936
760067,0,0,0,1,0,0,0,0,0,0,0,-1.6909548,2.703637,0.9430661,-0.37354216,2.5055096,3.6983476,3.9502518,-13.006815,-10.627903,5.3625193,31.126376
F30343,0,0,0,1,0,0,0,0,0,0,0,-3.8158946,3.453372,0.2302087,2.8992307,2.7975256,-5.6493354,-3.9933543,-6.131078,-5.5441337,-1.5828989,21.111803
